\relax 
\providecommand\hyper@newdestlabel[2]{}
\providecommand\HyperFirstAtBeginDocument{\AtBeginDocument}
\HyperFirstAtBeginDocument{\ifx\hyper@anchor\@undefined
\global\let\oldcontentsline\contentsline
\gdef\contentsline#1#2#3#4{\oldcontentsline{#1}{#2}{#3}}
\global\let\oldnewlabel\newlabel
\gdef\newlabel#1#2{\newlabelxx{#1}#2}
\gdef\newlabelxx#1#2#3#4#5#6{\oldnewlabel{#1}{{#2}{#3}}}
\AtEndDocument{\ifx\hyper@anchor\@undefined
\let\contentsline\oldcontentsline
\let\newlabel\oldnewlabel
\fi}
\fi}
\global\let\hyper@last\relax 
\gdef\HyperFirstAtBeginDocument#1{#1}
\providecommand\HyField@AuxAddToFields[1]{}
\providecommand\HyField@AuxAddToCoFields[2]{}
\babel@aux{UKenglish}{}
\citation{radevetal}
\@writefile{toc}{\contentsline {chapter}{\sc  Introduction}{III}{section*.3}}
\@writefile{toc}{\contentsline {paragraph}{Chapter 1}{IV}{section*.4}}
\@writefile{toc}{\contentsline {paragraph}{Chapter 2}{IV}{section*.5}}
\@writefile{toc}{\contentsline {paragraph}{Chapter 3}{IV}{section*.6}}
\@writefile{toc}{\contentsline {paragraph}{Chapter 4}{IV}{section*.7}}
\@writefile{toc}{\contentsline {paragraph}{Chapter 5}{IV}{section*.8}}
\@writefile{toc}{\contentsline {paragraph}{Conclusions and future applications}{IV}{section*.9}}
\citation{saltonmacgill}
\citation{quarteroniphd}
\@writefile{toc}{\contentsline {chapter}{\numberline {1}\sc  Question Answering Systems}{1}{chapter.1}}
\@writefile{lof}{\addvspace {10\p@ }}
\@writefile{lot}{\addvspace {10\p@ }}
\@writefile{toc}{\contentsline {section}{\numberline {1.1}\sc  Definition and main features}{1}{section.1.1}}
\citation{pagerank}
\citation{spokendialoguetechnology}
\@writefile{lof}{\contentsline {figure}{\numberline {1.1}{\ignorespaces \textit  {High-level operation of a QAS}\relax }}{2}{figure.caption.10}}
\providecommand*\caption@xref[2]{\@setref\relax\@undefined{#1}}
\newlabel{QASoperation}{{1.1}{2}{\textit {High-level operation of a QAS}\relax }{figure.caption.10}{}}
\@writefile{toc}{\contentsline {subsection}{\numberline {1.1.1}Paradigms of question answering}{2}{subsection.1.1.1}}
\@writefile{toc}{\contentsline {paragraph}{Search Engines}{2}{section*.11}}
\@writefile{toc}{\contentsline {paragraph}{Question Answering Systems}{2}{section*.12}}
\@writefile{toc}{\contentsline {paragraph}{Conversational Agents}{2}{section*.13}}
\citation{procedural}
\@writefile{toc}{\contentsline {section}{\numberline {1.2}\sc  Question taxonomy}{3}{section.1.2}}
\@writefile{toc}{\contentsline {section}{\numberline {1.3}\sc  A review of today's applications}{4}{section.1.3}}
\@writefile{toc}{\contentsline {section}{\numberline {1.4}\sc  At the bottom of this: Natural Language Processing}{5}{section.1.4}}
\@writefile{toc}{\contentsline {subsection}{\numberline {1.4.1}NLP issues}{6}{subsection.1.4.1}}
\citation{5realworldexamples,annefrank,hackaton}
\@writefile{toc}{\contentsline {chapter}{\numberline {2}\sc  Chatbots in real life environments }{8}{chapter.2}}
\@writefile{lof}{\addvspace {10\p@ }}
\@writefile{lot}{\addvspace {10\p@ }}
\@writefile{toc}{\contentsline {section}{\numberline {2.1}\sc  Chatbots and Museums}{8}{section.2.1}}
\@writefile{toc}{\contentsline {paragraph}{House Museums of Milan,}{8}{section*.14}}
\citation{transformgovernment}
\@writefile{toc}{\contentsline {paragraph}{The National Art Museum in Belarus}{9}{section*.15}}
\@writefile{toc}{\contentsline {paragraph}{The Cooper-Hewitt Museum in New York,}{9}{section*.16}}
\@writefile{toc}{\contentsline {paragraph}{The Anne Frank House in Amsterdam}{9}{section*.17}}
\@writefile{toc}{\contentsline {paragraph}{The city of Turin}{9}{section*.18}}
\@writefile{toc}{\contentsline {section}{\numberline {2.2}\sc  Citybots: How a chatbot can change a city}{9}{section.2.2}}
\citation{mumbay}
\@writefile{toc}{\contentsline {paragraph}{Joshua Browder,}{10}{section*.19}}
\@writefile{toc}{\contentsline {paragraph}{The United Kingdom}{10}{section*.20}}
\@writefile{toc}{\contentsline {paragraph}{Udayan Vidyanta}{10}{section*.21}}
\@writefile{toc}{\contentsline {chapter}{\numberline {3}\sc  Platforms and Technologies}{11}{chapter.3}}
\@writefile{lof}{\addvspace {10\p@ }}
\@writefile{lot}{\addvspace {10\p@ }}
\@writefile{toc}{\contentsline {section}{\numberline {3.1}\sc  Analysis of possible platforms}{11}{section.3.1}}
\@writefile{toc}{\contentsline {subsection}{\numberline {3.1.1}Email}{11}{subsection.3.1.1}}
\@writefile{toc}{\contentsline {subsection}{\numberline {3.1.2}SMS}{11}{subsection.3.1.2}}
\citation{botdeclarationWhatsapp}
\citation{FB_Messenger}
\@writefile{toc}{\contentsline {subsubsection}{Twilio}{12}{section*.22}}
\@writefile{toc}{\contentsline {subsection}{\numberline {3.1.3}Whatsapp}{12}{subsection.3.1.3}}
\@writefile{toc}{\contentsline {subsubsection}{YowSup}{12}{section*.23}}
\@writefile{toc}{\contentsline {subsection}{\numberline {3.1.4}Facebook Messenger}{12}{subsection.3.1.4}}
\@writefile{toc}{\contentsline {subsubsection}{Facebook Messenger API}{13}{section*.24}}
\@writefile{toc}{\contentsline {subsubsection}{The built in Natural Language Processing}{14}{section*.25}}
\@writefile{toc}{\contentsline {subsubsection}{Cons of Facebook Messenger}{14}{section*.26}}
\@writefile{toc}{\contentsline {subsection}{\numberline {3.1.5}Telegram}{15}{subsection.3.1.5}}
\@writefile{toc}{\contentsline {subsection}{\numberline {3.1.6}App}{15}{subsection.3.1.6}}
\@writefile{toc}{\contentsline {section}{\numberline {3.2}\sc  Useful tools for the implementation of QASs}{15}{section.3.2}}
\citation{google_AI}
\@writefile{toc}{\contentsline {subsection}{\numberline {3.2.1}Injecting Artificial Intelligence in our Chatbot}{16}{subsection.3.2.1}}
\@writefile{toc}{\contentsline {subsubsection}{Google Artificial Intelligence API}{16}{section*.27}}
\@writefile{toc}{\contentsline {subsubsection}{Python Libraries}{16}{section*.28}}
\@writefile{toc}{\contentsline {chapter}{\numberline {4}\sc  Project Analysis}{17}{chapter.4}}
\@writefile{lof}{\addvspace {10\p@ }}
\@writefile{lot}{\addvspace {10\p@ }}
\@writefile{toc}{\contentsline {section}{\numberline {4.1}\sc  Project Requirements}{17}{section.4.1}}
\@writefile{toc}{\contentsline {subsection}{\numberline {4.1.1}The expected user experience}{17}{subsection.4.1.1}}
\@writefile{toc}{\contentsline {section}{\numberline {4.2}\sc  The Python Server: first attempt}{18}{section.4.2}}
\@writefile{toc}{\contentsline {subsection}{\numberline {4.2.1}Passages and Questions}{18}{subsection.4.2.1}}
\@writefile{toc}{\contentsline {subsection}{\numberline {4.2.2}The Preprocessing}{19}{subsection.4.2.2}}
\@writefile{toc}{\contentsline {subsubsection}{Name Entity Recognition}{19}{section*.29}}
\@writefile{toc}{\contentsline {subsubsection}{Tokenization}{19}{section*.30}}
\@writefile{toc}{\contentsline {subsubsection}{Elimination of Stop Words}{20}{section*.31}}
\@writefile{toc}{\contentsline {subsubsection}{Lemmatization}{20}{section*.32}}
\@writefile{toc}{\contentsline {subsubsection}{Synonyms}{20}{section*.33}}
\@writefile{toc}{\contentsline {subsubsection}{An example of preprocessing}{20}{section*.34}}
\@writefile{lof}{\contentsline {figure}{\numberline {4.1}{\ignorespaces \textit  {Python Server Pipeline}\relax }}{21}{figure.caption.35}}
\newlabel{pipeline}{{4.1}{21}{\textit {Python Server Pipeline}\relax }{figure.caption.35}{}}
\@writefile{toc}{\contentsline {subsection}{\numberline {4.2.3}The Space Vector Model}{21}{subsection.4.2.3}}
\@writefile{toc}{\contentsline {paragraph}{Some math:}{22}{section*.36}}
\@writefile{toc}{\contentsline {subsubsection}{Answering a Question}{22}{section*.37}}
\@writefile{toc}{\contentsline {paragraph}{Some math:}{23}{section*.38}}
\@writefile{toc}{\contentsline {subsection}{\numberline {4.2.4}Need for further refinements}{23}{subsection.4.2.4}}
\@writefile{toc}{\contentsline {section}{\numberline {4.3}\sc  The Python Server: second attempt}{23}{section.4.3}}
\citation{cherrypy}
\@writefile{toc}{\contentsline {section}{\numberline {4.4}\sc  Bring the server on line: CherryPy}{25}{section.4.4}}
\@writefile{toc}{\contentsline {subsection}{\numberline {4.4.1}Interacting with the server: GET and POST}{25}{subsection.4.4.1}}
\citation{CORS}
\@writefile{toc}{\contentsline {subsection}{\numberline {4.4.2}Handling CORS}{26}{subsection.4.4.2}}
\@writefile{toc}{\contentsline {paragraph}{A cross-origin HTTP request}{26}{section*.39}}
\@writefile{toc}{\contentsline {section}{\numberline {4.5}\sc  The Mobile Application}{27}{section.4.5}}
\@writefile{toc}{\contentsline {paragraph}{Ionic}{27}{section*.40}}
\@writefile{toc}{\contentsline {subsection}{\numberline {4.5.1}User Interface}{27}{subsection.4.5.1}}
\newlabel{fig:interface1}{{4.2a}{29}{3550}{figure.caption.41}{}}
\newlabel{sub@fig:interface1}{{a}{29}{3550}{figure.caption.41}{}}
\newlabel{fig:interface2}{{4.2b}{29}{}{figure.caption.41}{}}
\newlabel{sub@fig:interface2}{{b}{29}{}{figure.caption.41}{}}
\newlabel{fig:interface3}{{4.2c}{29}{3550}{figure.caption.41}{}}
\newlabel{sub@fig:interface3}{{c}{29}{3550}{figure.caption.41}{}}
\newlabel{fig:interface4}{{4.2d}{29}{}{figure.caption.41}{}}
\newlabel{sub@fig:interface4}{{d}{29}{}{figure.caption.41}{}}
\@writefile{lof}{\contentsline {figure}{\numberline {4.2}{\ignorespaces  \relax }}{29}{figure.caption.41}}
\newlabel{fig:interface}{{4.2}{29}{\relax }{figure.caption.41}{}}
\@writefile{toc}{\contentsline {chapter}{\numberline {5}\sc  Question Classification}{30}{chapter.5}}
\@writefile{lof}{\addvspace {10\p@ }}
\@writefile{lot}{\addvspace {10\p@ }}
\@writefile{toc}{\contentsline {section}{\numberline {5.1}\sc  Classification Algorithms}{30}{section.5.1}}
\@writefile{toc}{\contentsline {subsection}{\numberline {5.1.1}Naive Bayes Classifier}{30}{subsection.5.1.1}}
\citation{naivebayes}
\@writefile{toc}{\contentsline {subsection}{\numberline {5.1.2}Logistic Regression}{31}{subsection.5.1.2}}
\citation{logisticregression}
\@writefile{lof}{\contentsline {figure}{\numberline {5.1}{\ignorespaces \textit  {Sigmoid Function}\relax }}{32}{figure.caption.42}}
\newlabel{fig:sigmoid}{{5.1}{32}{\textit {Sigmoid Function}\relax }{figure.caption.42}{}}
\@writefile{toc}{\contentsline {subsection}{\numberline {5.1.3}Linear Support Vector Classifier}{32}{subsection.5.1.3}}
\citation{accparadox}
\newlabel{fig:svc1}{{5.2a}{33}{3550}{figure.caption.43}{}}
\newlabel{sub@fig:svc1}{{a}{33}{3550}{figure.caption.43}{}}
\newlabel{fig:svc2}{{5.2b}{33}{}{figure.caption.43}{}}
\newlabel{sub@fig:svc2}{{b}{33}{}{figure.caption.43}{}}
\@writefile{lof}{\contentsline {figure}{\numberline {5.2}{\ignorespaces  \relax }}{33}{figure.caption.43}}
\newlabel{fig:svc}{{5.2}{33}{\relax }{figure.caption.43}{}}
\@writefile{toc}{\contentsline {section}{\numberline {5.2}\sc  Benchmarking Classification Algorithms}{33}{section.5.2}}
\@writefile{toc}{\contentsline {paragraph}{Accuracy}{33}{section*.44}}
\@writefile{toc}{\contentsline {paragraph}{Precision}{34}{section*.45}}
\@writefile{toc}{\contentsline {paragraph}{Recall}{34}{section*.46}}
\@writefile{toc}{\contentsline {paragraph}{F Measure}{34}{section*.47}}
\@writefile{toc}{\contentsline {subsection}{\numberline {5.2.1}Training and test data}{34}{subsection.5.2.1}}
\@writefile{toc}{\contentsline {subsection}{\numberline {5.2.2}Results of the benchmarking}{35}{subsection.5.2.2}}
\@writefile{lof}{\contentsline {figure}{\numberline {5.3}{\ignorespaces \textit  {Models Accuracy}\relax }}{35}{figure.caption.48}}
\newlabel{fig:models_accuracy}{{5.3}{35}{\textit {Models Accuracy}\relax }{figure.caption.48}{}}
\newlabel{fig:statLinear35}{{5.4a}{36}{2350}{figure.caption.49}{}}
\newlabel{sub@fig:statLinear35}{{a}{36}{2350}{figure.caption.49}{}}
\newlabel{fig:statNB35}{{5.4b}{36}{2350}{figure.caption.49}{}}
\newlabel{sub@fig:statNB35}{{b}{36}{2350}{figure.caption.49}{}}
\newlabel{fig:statRegression}{{5.4c}{36}{2350}{figure.caption.49}{}}
\newlabel{sub@fig:statRegression}{{c}{36}{2350}{figure.caption.49}{}}
\@writefile{lof}{\contentsline {figure}{\numberline {5.4}{\ignorespaces \relax \fontsize  {10.95}{13.6}\selectfont  \abovedisplayskip 11\p@ plus3\p@ minus6\p@ \abovedisplayshortskip \z@ plus3\p@ \belowdisplayshortskip 6.5\p@ plus3.5\p@ minus3\p@ \def \leftmargin \leftmargini \parsep 5\p@ plus2.5\p@ minus\p@ \topsep 10\p@ plus4\p@ minus6\p@ \itemsep 5\p@ plus2.5\p@ minus\p@ {\leftmargin \leftmargini \topsep 9\p@ plus3\p@ minus5\p@ \parsep 4.5\p@ plus2\p@ minus\p@ \itemsep \parsep }\belowdisplayskip \abovedisplayskip Accuracy, Recall and F measure of the three models\relax }}{36}{figure.caption.49}}
\newlabel{fig:stat35}{{5.4}{36}{\small Accuracy, Recall and F measure of the three models\relax }{figure.caption.49}{}}
\newlabel{fig:matrixLinear35}{{5.5a}{36}{2350}{figure.caption.50}{}}
\newlabel{sub@fig:matrixLinear35}{{a}{36}{2350}{figure.caption.50}{}}
\newlabel{fig:matrixNB35}{{5.5b}{36}{2350}{figure.caption.50}{}}
\newlabel{sub@fig:matrixNB35}{{b}{36}{2350}{figure.caption.50}{}}
\newlabel{fig:matrixRegression35}{{5.5c}{36}{2350}{figure.caption.50}{}}
\newlabel{sub@fig:matrixRegression35}{{c}{36}{2350}{figure.caption.50}{}}
\@writefile{lof}{\contentsline {figure}{\numberline {5.5}{\ignorespaces \relax \fontsize  {10.95}{13.6}\selectfont  \abovedisplayskip 11\p@ plus3\p@ minus6\p@ \abovedisplayshortskip \z@ plus3\p@ \belowdisplayshortskip 6.5\p@ plus3.5\p@ minus3\p@ \def \leftmargin \leftmargini \parsep 5\p@ plus2.5\p@ minus\p@ \topsep 10\p@ plus4\p@ minus6\p@ \itemsep 5\p@ plus2.5\p@ minus\p@ {\leftmargin \leftmargini \topsep 9\p@ plus3\p@ minus5\p@ \parsep 4.5\p@ plus2\p@ minus\p@ \itemsep \parsep }\belowdisplayskip \abovedisplayskip Confusion Matrix of the results of the three models\relax }}{36}{figure.caption.50}}
\newlabel{fig:matrix35}{{5.5}{36}{\small Confusion Matrix of the results of the three models\relax }{figure.caption.50}{}}
\@writefile{toc}{\contentsline {subsection}{\numberline {5.2.3}Performances of the Linear SVC}{36}{subsection.5.2.3}}
\newlabel{fig:SVCmatrix35}{{5.6a}{37}{3550}{figure.caption.51}{}}
\newlabel{sub@fig:SVCmatrix35}{{a}{37}{3550}{figure.caption.51}{}}
\newlabel{fig:SVCmatrix50}{{5.6b}{37}{}{figure.caption.51}{}}
\newlabel{sub@fig:SVCmatrix50}{{b}{37}{}{figure.caption.51}{}}
\newlabel{fig:SVCmatrix75}{{5.6c}{37}{}{figure.caption.51}{}}
\newlabel{sub@fig:SVCmatrix75}{{c}{37}{}{figure.caption.51}{}}
\newlabel{fig:SVCmatrix85}{{5.6d}{37}{}{figure.caption.51}{}}
\newlabel{sub@fig:SVCmatrix85}{{d}{37}{}{figure.caption.51}{}}
\newlabel{fig:matrices}{{5.6}{37}{}{figure.caption.51}{}}
\@writefile{lof}{\contentsline {figure}{\numberline {5.7}{\ignorespaces \relax \fontsize  {10.95}{13.6}\selectfont  \abovedisplayskip 11\p@ plus3\p@ minus6\p@ \abovedisplayshortskip \z@ plus3\p@ \belowdisplayshortskip 6.5\p@ plus3.5\p@ minus3\p@ \def \leftmargin \leftmargini \parsep 5\p@ plus2.5\p@ minus\p@ \topsep 10\p@ plus4\p@ minus6\p@ \itemsep 5\p@ plus2.5\p@ minus\p@ {\leftmargin \leftmargini \topsep 9\p@ plus3\p@ minus5\p@ \parsep 4.5\p@ plus2\p@ minus\p@ \itemsep \parsep }\belowdisplayskip \abovedisplayskip Performances of the LinearSVC for a training set size at 15\% \relax }}{37}{figure.caption.52}}
\newlabel{fig:statlinear85}{{5.7}{37}{\small Performances of the LinearSVC for a training set size at 15\% \relax }{figure.caption.52}{}}
\@writefile{toc}{\contentsline {chapter}{\sc  Conclusions}{38}{section*.54}}
\bibcite{radevetal}{1}
\bibcite{saltonmacgill}{2}
\bibcite{quarteroniphd}{3}
\bibcite{pagerank}{4}
\bibcite{procedural}{5}
\bibcite{spokendialoguetechnology}{6}
\bibcite{5realworldexamples}{7}
\bibcite{annefrank}{8}
\bibcite{hackaton}{9}
\bibcite{mumbay}{10}
\bibcite{transformgovernment}{11}
\bibcite{botdeclarationWhatsapp}{12}
\bibcite{FB_Messenger}{13}
\bibcite{google_assistant}{14}
\bibcite{google_AI}{15}
\bibcite{cherrypy}{16}
\bibcite{CORS}{17}
\bibcite{naivebayes}{18}
\bibcite{logisticregression}{19}
\bibcite{accparadox}{20}
\@writefile{toc}{\contentsline {chapter}{Appendices}{}{section*.57}}
\@writefile{toc}{\contentsline {chapter}{Appendices}{}{section*.58}}
\@writefile{toc}{\contentsline {section}{\numberline {.1}Web Server Configuration}{}{section.Alph0.1}}
\@writefile{toc}{\contentsline {section}{\numberline {.2}Web Server Application}{}{section.Alph0.2}}
\@writefile{toc}{\contentsline {section}{\numberline {.3}Web Server Classifier}{}{section.Alph0.3}}
\@writefile{toc}{\contentsline {section}{\numberline {.4}Tagged Questions dataset}{}{section.Alph0.4}}
\gdef \LT@i {\LT@entry 
    {1}{353.43439pt}\LT@entry 
    {1}{97.35696pt}}
